<?xml version="1.0" encoding="UTF-8" standalone="no"?>
<!-- Created with Inkscape (http://www.inkscape.org/) -->

<svg
   xmlns:dc="http://purl.org/dc/elements/1.1/"
   xmlns:cc="http://creativecommons.org/ns#"
   xmlns:rdf="http://www.w3.org/1999/02/22-rdf-syntax-ns#"
   xmlns:svg="http://www.w3.org/2000/svg"
   xmlns="http://www.w3.org/2000/svg"
   xmlns:sodipodi="http://sodipodi.sourceforge.net/DTD/sodipodi-0.dtd"
   xmlns:inkscape="http://www.inkscape.org/namespaces/inkscape"
   version="1.1"
   width="134.54205"
   height="158.3575"
   viewBox="0 0 1340.925 1578.6082"
   id="svg2"
   xml:space="preserve"
   style="fill-rule:evenodd"
   inkscape:version="0.48.5 r10040"
   sodipodi:docname="rllogo2.svg"><sodipodi:namedview
     pagecolor="#ffffff"
     bordercolor="#666666"
     borderopacity="1"
     objecttolerance="10"
     gridtolerance="10"
     guidetolerance="10"
     inkscape:pageopacity="0"
     inkscape:pageshadow="2"
     inkscape:window-width="1600"
     inkscape:window-height="818"
     id="namedview22"
     showgrid="false"
     inkscape:zoom="2.003056"
     inkscape:cx="175.03424"
     inkscape:cy="31.12524"
     inkscape:window-x="0"
     inkscape:window-y="30"
     inkscape:window-maximized="1"
     inkscape:current-layer="svg2"
     fit-margin-top="0"
     fit-margin-left="0"
     fit-margin-right="0"
     fit-margin-bottom="0" /><metadata
     id="metadata22"><rdf:RDF><cc:Work
         rdf:about=""><dc:format>image/svg+xml</dc:format><dc:type
           rdf:resource="http://purl.org/dc/dcmitype/StillImage" /><dc:title /></cc:Work></rdf:RDF></metadata><defs
     id="defs4"><style
       type="text/css"
       id="style6" /></defs><path
     d="m 820.41976,190.47707 0,941.13353 c 77.15529,16.8777 110.10699,10.4481 179.22529,-2.4111 L 1000.4487,0 C 921.68605,60.277552 870.24925,111.7144 820.41976,190.47707 z"
     id="path10"
     style="fill:#46558d"
     inkscape:connector-curvature="0" /><path
     d="m 299.62168,691.18263 0,409.88737 c 33.75543,6.4296 47.41834,12.8592 80.37007,19.2888 32.95173,7.2333 49.82945,11.2518 90.01448,11.2518 l 0,-380.95411 c 0,-145.46983 76.35157,-260.39904 220.21401,-260.39904 0,-80.37007 0,0 -5.62591,-175.20676 C 472.41734,293.35077 299.62168,490.25745 299.62168,691.18263 z"
     id="path12"
     style="fill:#112982"
     inkscape:connector-curvature="0" /><path
     d="m 29.578226,1151.7031 c 194.495584,171.992 639.745794,200.1215 839.867324,174.4031 171.99185,-21.6999 328.71355,-84.3886 371.30965,-94.8367 l -11.2518,-39.3813 C 687.00543,1415.317 225.68121,1289.136 29.578226,1151.7031 z"
     id="path14"
     style="fill:#112982"
     inkscape:connector-curvature="0" /><polygon
     points="0,1406 24,1420 "
     transform="matrix(0.80370074,0,0,0.80370074,-0.15870404,0)"
     id="polygon16"
     style="fill:#112982" /><polygon
     points="24,1420 37,1433 "
     transform="matrix(0.80370074,0,0,0.80370074,-0.15870404,0)"
     id="polygon18"
     style="fill:#112982" /><path
     d="m 219.59818,1575.8478 -44.99474,-82.2603 c 22.35933,-10.4896 35.33329,-30.6406 35.33329,-54.3801 0,-43.3385 -26.50001,-56.5885 -66.802,-56.5885 l -62.661394,0 0,193.2289 27.604134,0 0,-75.3593 40.57808,0 42.78641,75.3593 28.15622,0 m -76.7395,-171.9737 c 26.22391,0 39.74996,12.9739 39.74996,35.3333 0,27.052 -18.49479,35.8853 -32.84892,35.8853 l -41.68225,0 0,-71.2186 34.78121,0"
     id="path3031"
     style="font-size:276.04135132px;font-style:normal;font-variant:normal;font-weight:normal;font-stretch:normal;line-height:125%;letter-spacing:0px;word-spacing:0px;fill:#112982;fill-opacity:1;stroke:none;font-family:Cabin;-inkscape-font-specification:Cabin"
     inkscape:connector-curvature="0" /><path
     d="m 351.54164,1508.2177 c 0.82812,-4.6927 1.10416,-9.3854 1.10416,-13.25 0,-36.4374 -24.56771,-57.1405 -58.24472,-57.1405 -41.95824,0 -66.24993,31.4687 -66.24993,69.2863 0,38.9218 25.39586,71.4947 73.15096,71.4947 19.59892,0 34.78122,-5.7968 45.27078,-10.4895 l -3.31249,-19.599 c -12.14581,5.5209 -26.49998,8.0052 -38.92183,8.0052 -25.67182,0 -47.20308,-10.7656 -50.79161,-48.3072 l 97.99468,0 M 293.849,1459.9105 c 22.63536,0 33.12496,12.1458 33.12496,31.1926 l -71.21867,0 c 4.96874,-19.5989 16.01042,-31.1926 38.09371,-31.1926"
     id="path3033"
     style="font-size:276.04135132px;font-style:normal;font-variant:normal;font-weight:normal;font-stretch:normal;line-height:125%;letter-spacing:0px;word-spacing:0px;fill:#112982;fill-opacity:1;stroke:none;font-family:Cabin;-inkscape-font-specification:Cabin"
     inkscape:connector-curvature="0" /><path
     d="m 497.48988,1575.8478 0,-207.031 -24.84372,0 0,86.1249 c -11.59373,-14.0781 -29.2604,-17.1145 -41.4062,-17.1145 -37.81763,0 -61.55723,33.401 -61.55723,70.3905 0,39.4739 27.05209,70.3905 61.55723,70.3905 12.1458,0 31.19268,-6.625 41.4062,-19.8749 l 2.76041,17.1145 22.08331,0 m -64.31763,-115.9373 c 19.87495,0 42.23432,16.5625 42.23432,49.1353 0,33.9531 -22.35937,47.4791 -42.23432,47.4791 -23.73954,0 -38.09371,-21.8073 -38.09371,-48.3072 0,-27.6041 14.35417,-48.3072 38.09371,-48.3072"
     id="path3035"
     style="font-size:276.04135132px;font-style:normal;font-variant:normal;font-weight:normal;font-stretch:normal;line-height:125%;letter-spacing:0px;word-spacing:0px;fill:#112982;fill-opacity:1;stroke:none;font-family:Cabin;-inkscape-font-specification:Cabin"
     inkscape:connector-curvature="0" /><path
     d="m 645.91385,1508.2177 c 0.82812,-4.6927 1.10416,-9.3854 1.10416,-13.25 0,-36.4374 -24.56771,-57.1405 -58.24472,-57.1405 -41.95825,0 -66.24993,31.4687 -66.24993,69.2863 0,38.9218 25.39585,71.4947 73.15096,71.4947 19.59892,0 34.78122,-5.7968 45.27078,-10.4895 l -3.31249,-19.599 c -12.14581,5.5209 -26.49999,8.0052 -38.92184,8.0052 -25.67182,0 -47.20307,-10.7656 -50.7916,-48.3072 l 97.99468,0 m -57.69265,-48.3072 c 22.63537,0 33.12497,12.1458 33.12497,31.1926 l -71.21867,0 c 4.96874,-19.5989 16.01042,-31.1926 38.0937,-31.1926"
     id="path3037"
     style="font-size:276.04135132px;font-style:normal;font-variant:normal;font-weight:normal;font-stretch:normal;line-height:125%;letter-spacing:0px;word-spacing:0px;fill:#112982;fill-opacity:1;stroke:none;font-family:Cabin;-inkscape-font-specification:Cabin"
     inkscape:connector-curvature="0" /><path
     d="m 854.13961,1575.8478 0,-23.7395 -88.60927,0 0,-169.4894 -26.22393,0 0,193.2289 114.8332,0"
     id="path3039"
     style="font-size:276.04135132px;font-style:normal;font-variant:normal;font-weight:normal;font-stretch:normal;line-height:125%;letter-spacing:0px;word-spacing:0px;fill:#46558d;fill-opacity:1;stroke:none;font-family:Cabin;-inkscape-font-specification:Cabin"
     inkscape:connector-curvature="0" /><path
     d="m 897.46515,1410.223 0,-27.6041 -24.8437,0 0,27.6041 24.8437,0 m 0,165.6248 0,-135.2602 -24.8437,0 0,135.2602 24.8437,0"
     id="path3041"
     style="font-size:276.04135132px;font-style:normal;font-variant:normal;font-weight:normal;font-stretch:normal;line-height:125%;letter-spacing:0px;word-spacing:0px;fill:#46558d;fill-opacity:1;stroke:none;font-family:Cabin;-inkscape-font-specification:Cabin"
     inkscape:connector-curvature="0" /><path
     d="m 1053.3983,1575.8478 0,-74.5311 c 0,-38.9218 -15.7344,-63.4895 -55.20825,-63.4895 -14.3541,0 -29.2604,3.3125 -44.7187,17.1145 l -2.7604,-14.3541 -19.3229,0 0,135.2602 24.8437,0 0,-98.2707 c 6.901,-12.1458 21.5312,-17.6666 36.9896,-17.6666 25.67175,0 35.33315,12.6979 35.33315,41.4062 l 0,74.5311 24.8438,0"
     id="path3043"
     style="font-size:276.04135132px;font-style:normal;font-variant:normal;font-weight:normal;font-stretch:normal;line-height:125%;letter-spacing:0px;word-spacing:0px;fill:#46558d;fill-opacity:1;stroke:none;font-family:Cabin;-inkscape-font-specification:Cabin"
     inkscape:connector-curvature="0" /><path
     d="m 1196.5516,1575.8478 0,-135.2602 -24.8437,0 0,100.479 c -6.625,10.7656 -18.7708,15.4583 -31.1927,15.4583 -22.3593,0 -31.4687,-15.4583 -31.4687,-44.1666 l 0,-71.7707 -24.8437,0 0,78.6718 c 0,40.578 18.2187,59.3488 49.9635,59.3488 17.6666,0 28.9843,-5.7968 37.5416,-17.6666 l 2.7604,14.9062 22.0833,0"
     id="path3045"
     style="font-size:276.04135132px;font-style:normal;font-variant:normal;font-weight:normal;font-stretch:normal;line-height:125%;letter-spacing:0px;word-spacing:0px;fill:#46558d;fill-opacity:1;stroke:none;font-family:Cabin;-inkscape-font-specification:Cabin"
     inkscape:connector-curvature="0" /><path
     d="m 1341.042,1575.8478 -46.0989,-69.5624 44.4426,-65.6978 -28.9843,0 -31.1927,53.552 -33.9531,-53.552 -27.8802,0 46.099,67.9061 -47.2031,67.3541 27.8802,0 34.7812,-53.276 34.2291,53.276 27.8802,0"
     id="path3047"
     style="font-size:276.04135132px;font-style:normal;font-variant:normal;font-weight:normal;font-stretch:normal;line-height:125%;letter-spacing:0px;word-spacing:0px;fill:#46558d;fill-opacity:1;stroke:none;font-family:Cabin;-inkscape-font-specification:Cabin"
     inkscape:connector-curvature="0" /></svg>